Clam Plate Fluorescence by Well
…
fluor_long <- map_dfr(files, parse_plate_file) %>%
  arrange(plate_id, well, time_hours)

# Build a consistent well color map and force Column 6 wells to black.
well_levels <- sort(unique(fluor_long$well))
well_colors <- setNames(scales::hue_pal()(length(well_levels)), well_levels)
well_colors[str_detect(names(well_colors), "6$")] <- "black"

# Save plots to a local output folder.
plot_dir <- "plots"
dir.create(plot_dir, showWarnings = FALSE, recursive = TRUE)

fluor_long

# A tibble: 480 × 9
   row     col fluorescence well  file            treatment plate_color plate_id
   <chr> <int>        <dbl> <chr> <chr>           <chr>     <chr>       <chr>   
 1 A         1          230 A1    plate-C-blue-T… C         blue        C-blue  
 2 A         1         1947 A1    plate-C-blue-T… C         blue        C-blue  
 3 A         1         3534 A1    plate-C-blue-T… C         blue        C-blue  
 4 A         1         4959 A1    plate-C-blue-T… C         blue        C-blue  
 5 A         1         5797 A1    plate-C-blue-T… C         blue        C-blue  
 6 A         2          304 A2    plate-C-blue-T… C         blue        C-blue  
 7 A         2         1722 A2    plate-C-blue-T… C         blue        C-blue  
 8 A         2         4702 A2    plate-C-blue-T… C         blue        C-blue  
 9 A         2         6366 A2    plate-C-blue-T… C         blue        C-blue  
10 A         2         7279 A2    plate-C-blue-T… C         blue        C-blue  
# ℹ 470 more rows
# ℹ 1 more variable: time_hours <dbl>
…
